Class 13: Visualizing Campaign Finance data
…
#Finally, we should rename the columns to remove spaces and generally promote brevity.

#names(cooper_rcpts_2019A) <- c("date","prior","donor","street1","street2","city","state","zip","country","postal","profession","employer","purpose","type","account","payment_form","description","amount","sum_to_date")

If you wanted to find donors who work for the Universit of North Carolina at Chapel Hill.

Find all the university employers

cooper_rcpts_2019A %>%
  filter(str_detect(employer, "UNIVERSITY"))

## # A tibble: 224 x 19
##    date       prior donor street1 street2 city  state zip   country postal
##    <date>     <lgl> <chr> <chr>   <chr>   <chr> <chr> <chr> <chr>   <chr> 
##  1 2019-02-20 NA    GEOR… PO BOX… <NA>    CHAP… NC    27516 United… <NA>  
##  2 2019-04-30 NA    NEIL… 14 SUM… <NA>    FAIR… VT    05454 United… <NA>  
##  3 2019-06-07 NA    NEIL… 14 SUM… <NA>    FAIR… VT    05454 United… <NA>  
##  4 2019-06-12 NA    NEIL… 14 SUM… <NA>    FAIR… VT    05454 United… <NA>  
##  5 2019-05-03 NA    JAME… 2813 S… <NA>    FAYE… NC    28303 United… <NA>  
##  6 2019-01-16 NA    BRIA… 610 AR… <NA>    DURH… NC    27701 United… <NA>  
##  7 2019-03-06 NA    EDWA… 1 WYND… <NA>    DURH… NC    27705 United… <NA>  
##  8 2019-05-26 NA    SARA… 1229 W… <NA>    WINS… NC    27101 United… <NA>  
##  9 2019-01-02 NA    LAWR… 1010 H… <NA>    DURH… NC    27707 United… <NA>  
## 10 2019-02-02 NA    LAWR… 1010 H… <NA>    DURH… NC    27707 United… <NA>  
## # … with 214 more rows, and 9 more variables: profession <chr>,
## #   employer <chr>, purpose <chr>, type <chr>, account <chr>,
## #   payment_form <chr>, description <chr>, amount <dbl>, sum_to_date <dbl>

cooper_rcpts_2019A %>%
  filter(str_detect(employer, "UNC"))

## # A tibble: 156 x 19
##    date       prior donor street1 street2 city  state zip   country postal
##    <date>     <lgl> <chr> <chr>   <chr>   <chr> <chr> <chr> <chr>   <chr> 
##  1 2019-02-06 NA    STAN… 201 PA… <NA>    CHAP… NC    27516 United… <NA>  
##  2 2019-05-02 NA    STAN… 201 PA… <NA>    CHAP… NC    27516 United… <NA>  
##  3 2019-04-30 NA    WAHE… 100 HE… <NA>    GOLD… NC    27530 United… <NA>  
##  4 2019-04-30 NA    JAME… 1212 O… <NA>    GREE… NC    27408 United… <NA>  
##  5 2019-05-17 NA    NADI… 13 SUR… <NA>    DURH… NC    27707 United… <NA>  
##  6 2019-02-04 NA    EVAN… 1528 P… <NA>    DURH… NC    27705 United… <NA>  
##  7 2019-05-29 NA    FLOR… 305 E … <NA>    CARR… NC    27510 United… <NA>  
##  8 2019-04-12 NA    CARE… 202 CA… <NA>    CHAP… NC    27516 United… <NA>  
##  9 2019-03-10 NA    DANI… 210 BR… <NA>    WILM… NC    28409 United… <NA>  
## 10 2019-06-27 NA    DENI… 2506 S… <NA>    GREE… NC    27403 United… <NA>  
## # … with 146 more rows, and 9 more variables: profession <chr>,
## #   employer <chr>, purpose <chr>, type <chr>, account <chr>,
## #   payment_form <chr>, description <chr>, amount <dbl>, sum_to_date <dbl>

cooper_rcpts_2019A %>%
  filter(str_detect(employer, "U/. OF"))

## # A tibble: 0 x 19
## # … with 19 variables: date <date>, prior <lgl>, donor <chr>, street1 <chr>,
## #   street2 <chr>, city <chr>, state <chr>, zip <chr>, country <chr>,
## #   postal <chr>, profession <chr>, employer <chr>, purpose <chr>, type <chr>,
## #   account <chr>, payment_form <chr>, description <chr>, amount <dbl>,
## #   sum_to_date <dbl>

cooper_rcpts_2019A %>%
  filter(str_detect(employer, "UNC") | str_detect(employer, "UNIVERSITY") | str_detect(employer, "U/. OF") )

## # A tibble: 380 x 19
##    date       prior donor street1 street2 city  state zip   country postal
##    <date>     <lgl> <chr> <chr>   <chr>   <chr> <chr> <chr> <chr>   <chr> 
##  1 2019-02-20 NA    GEOR… PO BOX… <NA>    CHAP… NC    27516 United… <NA>  
##  2 2019-04-30 NA    NEIL… 14 SUM… <NA>    FAIR… VT    05454 United… <NA>  
##  3 2019-06-07 NA    NEIL… 14 SUM… <NA>    FAIR… VT    05454 United… <NA>  
##  4 2019-06-12 NA    NEIL… 14 SUM… <NA>    FAIR… VT    05454 United… <NA>  
##  5 2019-02-06 NA    STAN… 201 PA… <NA>    CHAP… NC    27516 United… <NA>  
##  6 2019-05-02 NA    STAN… 201 PA… <NA>    CHAP… NC    27516 United… <NA>  
##  7 2019-04-30 NA    WAHE… 100 HE… <NA>    GOLD… NC    27530 United… <NA>  
##  8 2019-04-30 NA    JAME… 1212 O… <NA>    GREE… NC    27408 United… <NA>  
##  9 2019-05-03 NA    JAME… 2813 S… <NA>    FAYE… NC    28303 United… <NA>  
## 10 2019-05-17 NA    NADI… 13 SUR… <NA>    DURH… NC    27707 United… <NA>  
## # … with 370 more rows, and 9 more variables: profession <chr>,
## #   employer <chr>, purpose <chr>, type <chr>, account <chr>,
## #   payment_form <chr>, description <chr>, amount <dbl>, sum_to_date <dbl>

cooper_rcpts_2019A %>%
  filter(str_detect(employer, "^UNC") | str_detect(employer, "UNIVERSITY") | str_detect(employer, "U/. OF") | str_detect(profession, "PROF"))

## # A tibble: 477 x 19
##    date       prior donor street1 street2 city  state zip   country postal
##    <date>     <lgl> <chr> <chr>   <chr>   <chr> <chr> <chr> <chr>   <chr> 
##  1 2019-02-20 NA    GEOR… PO BOX… <NA>    CHAP… NC    27516 United… <NA>  
##  2 2019-04-30 NA    NEIL… 14 SUM… <NA>    FAIR… VT    05454 United… <NA>  
##  3 2019-06-07 NA    NEIL… 14 SUM… <NA>    FAIR… VT    05454 United… <NA>  
##  4 2019-06-12 NA    NEIL… 14 SUM… <NA>    FAIR… VT    05454 United… <NA>  
##  5 2019-02-06 NA    STAN… 201 PA… <NA>    CHAP… NC    27516 United… <NA>  
##  6 2019-05-02 NA    STAN… 201 PA… <NA>    CHAP… NC    27516 United… <NA>  
##  7 2019-04-30 NA    WAHE… 100 HE… <NA>    GOLD… NC    27530 United… <NA>  
##  8 2019-04-30 NA    JAME… 1212 O… <NA>    GREE… NC    27408 United… <NA>  
##  9 2019-05-03 NA    JAME… 2813 S… <NA>    FAYE… NC    28303 United… <NA>  
## 10 2019-05-17 NA    NADI… 13 SUR… <NA>    DURH… NC    27707 United… <NA>  
## # … with 467 more rows, and 9 more variables: profession <chr>,
## #   employer <chr>, purpose <chr>, type <chr>, account <chr>,
## #   payment_form <chr>, description <chr>, amount <dbl>, sum_to_date <dbl>

####UGH. How do you make sure UNC doesn’t match BUNCOME. FIXED.

cooper_rcpts_2019A %>%
  filter(str_detect(profession, "PROF"))

## # A tibble: 268 x 19
##    date       prior donor street1 street2 city  state zip   country postal
##    <date>     <lgl> <chr> <chr>   <chr>   <chr> <chr> <chr> <chr>   <chr> 
##  1 2019-02-20 NA    GEOR… PO BOX… <NA>    CHAP… NC    27516 United… <NA>  
##  2 2019-02-06 NA    STAN… 201 PA… <NA>    CHAP… NC    27516 United… <NA>  
##  3 2019-05-02 NA    STAN… 201 PA… <NA>    CHAP… NC    27516 United… <NA>  
##  4 2019-04-30 NA    JAME… 1212 O… <NA>    GREE… NC    27408 United… <NA>  
##  5 2019-05-29 NA    FLOR… 305 E … <NA>    CARR… NC    27510 United… <NA>  
##  6 2019-03-10 NA    DANI… 210 BR… <NA>    WILM… NC    28409 United… <NA>  
##  7 2019-06-27 NA    DENI… 2506 S… <NA>    GREE… NC    27403 United… <NA>  
##  8 2019-05-26 NA    SARA… 1229 W… <NA>    WINS… NC    27101 United… <NA>  
##  9 2019-04-16 NA    GAIL… 2718 C… <NA>    CHAR… NC    28226 United… <NA>  
## 10 2019-01-02 NA    LAWR… 1010 H… <NA>    DURH… NC    27707 United… <NA>  
## # … with 258 more rows, and 9 more variables: profession <chr>,
## #   employer <chr>, purpose <chr>, type <chr>, account <chr>,
## #   payment_form <chr>, description <chr>, amount <dbl>, sum_to_date <dbl>
…
ANYONE WHO WORKS AT A UNIVERSITY

INCLUDING RETIRED PROFESSORS

###In vhis, create a new column that just stories whether it was a general election or not.

Replace “UNC” with “UNIVERSITY OF NORTH CAROLINA” in a new column called NewEmp. (Also, note why this doesn’t really work.)

coop_new <- cooper_rcpts_2019A %>%
  mutate(NewEmp = str_replace(employer, "^UNC", "UNIVERSITY OF NORTH CAROLINA"))

coop_new %>%
  filter(str_detect(employer, "^UNC") )

## # A tibble: 136 x 20
##    date       prior donor street1 street2 city  state zip   country postal
##    <date>     <lgl> <chr> <chr>   <chr>   <chr> <chr> <chr> <chr>   <chr> 
##  1 2019-02-06 NA    STAN… 201 PA… <NA>    CHAP… NC    27516 United… <NA>  
##  2 2019-05-02 NA    STAN… 201 PA… <NA>    CHAP… NC    27516 United… <NA>  
##  3 2019-04-30 NA    WAHE… 100 HE… <NA>    GOLD… NC    27530 United… <NA>  
##  4 2019-04-30 NA    JAME… 1212 O… <NA>    GREE… NC    27408 United… <NA>  
##  5 2019-05-17 NA    NADI… 13 SUR… <NA>    DURH… NC    27707 United… <NA>  
##  6 2019-02-04 NA    EVAN… 1528 P… <NA>    DURH… NC    27705 United… <NA>  
##  7 2019-05-29 NA    FLOR… 305 E … <NA>    CARR… NC    27510 United… <NA>  
##  8 2019-04-12 NA    CARE… 202 CA… <NA>    CHAP… NC    27516 United… <NA>  
##  9 2019-03-10 NA    DANI… 210 BR… <NA>    WILM… NC    28409 United… <NA>  
## 10 2019-06-27 NA    DENI… 2506 S… <NA>    GREE… NC    27403 United… <NA>  
## # … with 126 more rows, and 10 more variables: profession <chr>,
## #   employer <chr>, purpose <chr>, type <chr>, account <chr>,
## #   payment_form <chr>, description <chr>, amount <dbl>, sum_to_date <dbl>,
## #   NewEmp <chr>
…
